Data Wrangling in R
…
# A tibble: 2 × 3
  classtype avg.reading count
  <chr>           <dbl> <int>
1 regular          625.   689
2 small            633.   585

dplyr’s mutate function allows users to create variables. When combined with group_by it allows for the creation of summary variables that are added to the original data frame.

star |> 
  group_by(classtype) |> 
  mutate(avg.reading = mean(reading), count = n())

# A tibble: 1,274 × 6
# Groups:   classtype [2]
   classtype reading  math graduated avg.reading count
   <chr>       <int> <int>     <int>       <dbl> <int>
 1 small         578   610         1        633.   585
 2 regular       612   612         1        625.   689
 3 regular       583   606         1        625.   689
 4 small         661   648         1        633.   585
 5 small         614   636         1        633.   585
 6 regular       610   603         0        625.   689
 7 small         595   610         1        633.   585
 8 small         665   631         1        633.   585
 9 regular       616   636         1        625.   689
10 regular       624   626         1        625.   689
# ℹ 1,264 more rows
…
